datacleaning
…
FD1[FD1== "2/28/22 (DPI_6)"]<- "2022/02/28"

FD1[FD1== "3/1/22 (DPI_7)"]<- "2022/03/01"

FD1[FD1== "3/3/22 (DPI_9)"]<- "2022/03/03"

FD1[FD1== "3/5/22 (DPI_11)"]<- "2022/03/05"

FD1[FD1== "3/7/22 (DPI_13)"]<- "2022/03/07"

FD1[FD1== "3/14/22 (DPI_20)"]<- "2022/03/14"

FD1 #Looks much better! Now, let's use as.Date to convert these

# A tibble: 144 × 4
   Feeder_number Collection_Date Absence_0_Presence_1 Feeder_Type   
           <dbl> <chr>                          <dbl> <chr>         
 1             1 2022/02/22                         1 Wood_coated   
 2             2 2022/02/22                         1 Wood          
 3             3 2022/02/22                         1 Plastic_coated
 4             4 2022/02/22                         1 Plastic       
 5             5 2022/02/22                         1 Plastic       
 6             6 2022/02/22                         1 Plastic_coated
 7             7 2022/02/22                         1 Wood          
 8             8 2022/02/22                         1 Wood_coated   
 9             9 2022/02/22                         1 Wood          
10            10 2022/02/22                         1 Wood_coated   
# … with 134 more rows

FD1$Collection_Date<- as.Date(FD1$Collection_Date, fomrat= "%Y %M %D")

FD1

# A tibble: 144 × 4
   Feeder_number Collection_Date Absence_0_Presence_1 Feeder_Type   
           <dbl> <date>                         <dbl> <chr>         
 1             1 2022-02-22                         1 Wood_coated   
 2             2 2022-02-22                         1 Wood          
 3             3 2022-02-22                         1 Plastic_coated
 4             4 2022-02-22                         1 Plastic       
 5             5 2022-02-22                         1 Plastic       
 6             6 2022-02-22                         1 Plastic_coated
 7             7 2022-02-22                         1 Wood          
 8             8 2022-02-22                         1 Wood_coated   
 9             9 2022-02-22                         1 Wood          
10            10 2022-02-22                         1 Wood_coated   
# … with 134 more rows
…
