Combined Data Cleaning and Statistical Analysis Script for Manuscript: Salmonella Environmental Persistence Informs Management Relevant to Avian and Public Health
…
tidy(lmall_PT)

# A tibble: 194 × 5
   term                     estimate std.error statistic p.value
   <chr>                       <dbl>     <dbl>     <dbl>   <dbl>
 1 (Intercept)              1.22e+ 4  6088.     2.00e+ 0   0.184
 2 IDDPT1Q1 PER 1-3-2020    1.67e+ 0     0.667  2.50e+ 0   0.130
 3 IDDPT1Q1 PER 1-4-2020    1.33e+ 0     0.882  1.51e+ 0   0.270
 4 IDDPT1Q1 PER 1-5-2020    2.00e+ 0     1.15   1.73e+ 0   0.225
 5 IDDPT1Q1 PER 1-6-2020    2.67e+ 0     1.45   1.84e+ 0   0.208
 6 IDDPT1Q1 PER 1-7-2020    3.33e+ 0     1.76   1.89e+ 0   0.199
 7 IDDPT1Q1 Per 1-8-2020    4.00e+ 0     2.08   1.92e+ 0   0.195
 8 IDDPT1Q1 PER 1-9-20202   4.67e+ 0     2.40   1.94e+ 0   0.192
 9 IDDPT1Q1 POOLED 1-2-2020 2.21e-10     0.577  3.83e-10   1.00 
10 IDDPT1Q1 POOLED 1-3-2020 6.67e- 1     0.667  1.00e+ 0   0.423
# … with 184 more rows
…
Degrees of Freedom: 191 Total (i.e. Null);  2 Residual
Null Deviance:      31.08 
Residual Deviance: 0.3333   AIC: -293.5

tidy(lmall_PTGLM)

# A tibble: 194 × 5
   term                     estimate std.error statistic p.value
   <chr>                       <dbl>     <dbl>     <dbl>   <dbl>
 1 (Intercept)              1.22e+ 4  6088.     2.00e+ 0   0.184
 2 IDDPT1Q1 PER 1-3-2020    1.67e+ 0     0.667  2.50e+ 0   0.130
 3 IDDPT1Q1 PER 1-4-2020    1.33e+ 0     0.882  1.51e+ 0   0.270
 4 IDDPT1Q1 PER 1-5-2020    2.00e+ 0     1.15   1.73e+ 0   0.225
 5 IDDPT1Q1 PER 1-6-2020    2.67e+ 0     1.45   1.84e+ 0   0.208
 6 IDDPT1Q1 PER 1-7-2020    3.33e+ 0     1.76   1.89e+ 0   0.199
 7 IDDPT1Q1 Per 1-8-2020    4.00e+ 0     2.08   1.92e+ 0   0.195
 8 IDDPT1Q1 PER 1-9-20202   4.67e+ 0     2.40   1.94e+ 0   0.192
 9 IDDPT1Q1 POOLED 1-2-2020 2.21e-10     0.577  3.83e-10   1.00 
10 IDDPT1Q1 POOLED 1-3-2020 6.67e- 1     0.667  1.00e+ 0   0.423
# … with 184 more rows
…
